{
    "teu": {
        "multiRangeSlider": {
            "activeMinLabel": "%property% from",
            "activeMaxLabel": "%property% to",
            "errorMessage": "The minimum %property% cannot be higher than the maximum %property%."
        }
    }
}
